﻿<?xml version="1.0" encoding="utf-8"?>
<?AutomationStudio Version="3.0"?>
<PanelMap xmlns="http://br-automation.co.at/AS/VC/Project">
  <Property Name="Description" Value="Keymapping for 4PPC70" />
  <Property Name="HwFile" Value="4PPC70.070M-20B.hwx" />
  <Property Name="Name" Value="4PPC70_070M_20B" />
  <Property Name="NumLevel" Value="4" />
  <Property Name="Type" Value="4PPC70.070M-20B" />
  <PanelItems>
    <PanelItem Index="1">
      <KeyLevels />
    </PanelItem>
  </PanelItems>
</PanelMap>