

Mon Jul 17 13:35:09 2017
No ARsim registration found!
  Bernecker & Rainer 



Mon Jul 17 13:35:09 2017
COMMAND_COLDSTART
InstanceName : 01d2fef0bea13dd0

WorkingPath :
C:\Users\Resmi\Desktop\ColdjetGit\Temp\Simulation\C70_070M_20B_Schuler\4PPC70_070M_20B\



Mon Jul 17 13:35:09 2017
COMMAND_COLDSTART
Version : G4.09

Version : G4.09



Mon Jul 17 13:36:13 2017
COMMAND_TERMINATE


Mon Jul 17 13:36:13 2017
Old process terminated: C:\Users\Resmi\Desktop\ColdjetGit\Temp\Simulation\C70_070M_20B_Schuler\4PPC70_070M_20B\AR000Debug.exe


Mon Jul 17 13:36:13 2017
COMMAND_TERMINATE


Mon Jul 17 13:36:13 2017
